femtorv32/FemtoRV/RTL/testbench.vcd
$date
	Fri Sep  9 22:26:22 2022
$end
$version
	Icarus Verilog
$end
$timescale
	1s
$end
$scope module testbench $end
$var reg 1 ! clk $end
$var reg 1 " reset $end
$scope module ITA_CORE $end
$var wire 1 " RESET $end
$var wire 1 # RXD $end
$var wire 1 $ RXD_internal $end
$var wire 1 % TXD $end
$var wire 1 & TXD_internal $end
$var wire 1 ' io_rbusy $end
$var wire 1 ( io_rstrb $end
$var wire 1 ) io_wbusy $end
$var wire 32 * io_wdata [31:0] $end
$var wire 1 + io_wstrb $end
$var wire 1 , mem_rbusy $end
$var wire 1 - mem_wbusy $end
$var wire 1 ! pclk $end
$var wire 1 . reset $end
$var wire 1 / spi_miso $end
$var wire 32 0 uart_rdata [31:0] $end
$var wire 1 1 uart_brk $end
$var wire 1 2 spi_mosi $end
$var wire 1 3 spi_cs_n $end
$var wire 1 4 spi_clk $end
$var wire 20 5 ram_word_address [19:0] $end
$var wire 1 6 mem_wstrb $end
$var wire 4 7 mem_wmask [3:0] $end
$var wire 32 8 mem_wdata [31:0] $end
$var wire 1 9 mem_rstrb $end
$var wire 32 : mem_rdata [31:0] $end
$var wire 1 ; mem_address_is_spi_flash $end
$var wire 1 < mem_address_is_ram $end
$var wire 1 = mem_address_is_io $end
$var wire 32 > mem_address [31:0] $end
$var wire 32 ? mapped_spi_flash_rdata [31:0] $end
$var wire 1 @ mapped_spi_flash_rbusy $end
$var wire 20 A io_word_address [19:0] $end
$var wire 32 B hwconfig_rdata [31:0] $end
$var wire 1 C clk $end
$var wire 1 D board_led $end
$var reg 1 E error $end
$var reg 32 F io_rdata [31:0] $end
$var reg 32 G ram_rdata [31:0] $end
$var reg 16 H reset_cnt [15:0] $end
$scope module hwconfig $end
$var wire 1 I sel_cpuinfo $end
$var wire 1 J sel_devices $end
$var wire 1 K sel_memory $end
$var wire 32 L rdata [31:0] $end
$var wire 1 C clk $end
$upscope $end
$scope module mapped_spi_flash $end
$var wire 1 4 CLK $end
$var wire 1 / MISO $end
$var wire 1 M busy $end
$var wire 1 N rstrb $end
$var wire 20 O word_address [19:0] $end
$var wire 1 P sending $end
$var wire 1 Q receiving $end
$var wire 32 R rdata [31:0] $end
$var wire 1 @ rbusy $end
$var wire 1 C clk $end
$var wire 1 2 MOSI $end
$var reg 1 3 CS_N $end
$var reg 32 S cmd_addr [31:0] $end
$var reg 6 T rcv_bitcount [5:0] $end
$var reg 32 U rcv_data [31:0] $end
$var reg 6 V snd_bitcount [5:0] $end
$upscope $end
$scope module my_debug_led $end
$var wire 1 ! clk $end
$var wire 1 D led $end
$var reg 26 W counter [25:0] $end
$upscope $end
$scope module pll $end
$var wire 1 C clk $end
$var wire 1 ! pclk $end
$upscope $end
$scope module processor $end
$var wire 1 X LOAD_sign $end
$var wire 32 Y aluIn1 [31:0] $end
$var wire 32 Z aluOut [31:0] $end
$var wire 1 [ aluWr $end
$var wire 1 C clk $end
$var wire 1 \ funct3IsShift $end
$var wire 1 ] isALU $end
$var wire 1 ^ jumpToPCplusImm $end
$var wire 1 , mem_rbusy $end
$var wire 32 _ mem_rdata [31:0] $end
$var wire 1 9 mem_rstrb $end
$var wire 1 - mem_wbusy $end
$var wire 4 ` mem_wmask [3:0] $end
$var wire 1 a needToWait $end
$var wire 1 b predicate $end
$var wire 1 c reset $end
$var wire 1 d writeBack $end
$var wire 32 e writeBackData [31:0] $end
$var wire 5 f rdId [4:0] $end
$var wire 32 g mem_wdata [31:0] $end
$var wire 1 h mem_halfwordAccess $end
$var wire 1 i mem_byteAccess $end
$var wire 32 j mem_addr [31:0] $end
$var wire 24 k loadstore_addr [23:0] $end
$var wire 1 l isStore $end
$var wire 1 m isSYSTEM $end
$var wire 1 n isLoad $end
$var wire 1 o isLUI $end
$var wire 1 p isJALR $end
$var wire 1 q isJAL $end
$var wire 1 r isBranch $end
$var wire 1 s isAUIPC $end
$var wire 1 t isALUreg $end
$var wire 1 u isALUimm $end
$var wire 8 v funct3Is [7:0] $end
$var wire 32 w aluPlus [31:0] $end
$var wire 33 x aluMinus [32:0] $end
$var wire 32 y aluIn2 [31:0] $end
$var wire 1 z aluBusy $end
$var wire 32 { Uimm [31:0] $end
$var wire 32 | Simm [31:0] $end
$var wire 4 } STORE_wmask [3:0] $end
$var wire 24 ~ PCplusImm [23:0] $end
$var wire 24 !" PCplus4 [23:0] $end
$var wire 1 "" LTU $end
$var wire 1 #" LT $end
$var wire 16 $" LOAD_halfword [15:0] $end
$var wire 32 %" LOAD_data [31:0] $end
$var wire 8 &" LOAD_byte [7:0] $end
$var wire 32 '" Jimm [31:0] $end
$var wire 32 (" Iimm [31:0] $end
$var wire 1 )" EQ $end
$var wire 32 *" Bimm [31:0] $end
$var reg 24 +" PC [23:0] $end
$var reg 32 ," aluReg [31:0] $end
$var reg 5 -" aluShamt [4:0] $end
$var reg 32 ." cycles [31:0] $end
$var reg 30 /" instr [31:2] $end
$var reg 32 0" rs1 [31:0] $end
$var reg 32 1" rs2 [31:0] $end
$var reg 4 2" state [3:0] $end
$upscope $end
$scope module uart $end
$var wire 1 $ RXD $end
$var wire 1 & TXD $end
$var wire 1 C clk $end
$var wire 32 3" rdata [31:0] $end
$var wire 1 ( rstrb $end
$var wire 1 4" sel_cntl $end
$var wire 1 5" sel_dat $end
$var wire 32 6" wdata [31:0] $end
$var wire 1 + wstrb $end
$var reg 1 1 brk $end
$upscope $end
$upscope $end
$upscope $end
$enddefinitions $end
#0
$dumpvars
bx 6"
x5"
x4"
b0 3"
bx 2"
bx 1"
bx 0"
bx /"
b0 ."
b0 -"
bx ,"
bx +"
bx0 *"
x)"
bx ("
bx0 '"
bx &"
bx %"
bx $"
x#"
x""
bx !"
bx ~
bx }
bx |
bx000000000000 {
0z
bx y
bx x
bx w
bx v
xu
xt
xs
xr
xq
xp
xo
xn
xm
xl
bx k
b0xxxxxxxxxxxxxxxxxxxxxxxx j
xi
xh
bx g
bx f
bx e
xd
0c
xb
xa
bx `
bx _
x^
x]
x\
x[
bx Z
bx Y
xX
b0 W
bx V
bx U
bx T
bx S
bx R
xQ
xP
bx O
xN
xM
b0xxx00000xx000000xxxx0 L
xK
xJ
xI
b0 H
bx G
bx F
0E
1D
0C
b0xxx00000xx000000xxxx0 B
bx A
0@
bx ?
b0xxxxxxxxxxxxxxxxxxxxxxxx >
x=
x<
x;
bx :
x9
bx 8
bx 7
x6
bx 5
04
13
x2
x1
b0 0
z/
0.
0-
0,
x+
bx *
0)
x(
0'
0&
0%
z$
z#
0"
0!
$end
#10
0(
0N
0+
09
06
b0 7
b0 `
0[
b1 W
b1 H
b100 !"
b0 +"
b1000 2"
b1 ."
b0xxx00000xx000000xxxx0 F
1C
1!
#20
b0 H
xc
0C
0!
1.
1"
#30
b0 B
b0 L
0K
0J
0I
05"
04"
b0 5
b0 A
b0 O
0;
0=
1<
b0 >
b0 j
0d
0(
0N
19
b10 W
b10 ."
b1 2"
1C
1!
#40
0C
0!
#50
0X
b0x0x00xx0xxx %"
b0xx0xxx &"
b0x0x00xx0xxx $"
09
b10100110111 :
b10100110111 _
b11 W
b10 2"
b11 ."
b10100110111 G
b0 F
1C
1!
#60
0C
0!
#70
1b
b0 Z
b0 &"
b0 e
b100 }
15"
0#"
b0 $"
b10 5
b10 A
b10 O
b0 ~
0""
1)"
b1010 >
b1010 j
1d
0\
b0 x
b1010 k
0a
0^
b0 w
b0 y
0]
b0 %"
b1010 f
b1 v
b0 {
b0 ("
b1010 |
b1010 *"
b0 '"
0n
0u
0s
0l
0t
1o
0r
0p
0q
0m
1i
0h
b0 *
b0 6"
b0 8
b0 g
b100 W
b100 ."
b100 2"
b101001101 /"
b0 1"
b0 Y
b0 0"
1C
1!
#80
0C
0!
#90
05"
b1 5
b1 A
b1 O
b1000000000000 $"
b100 >
b100 j
0d
19
b10000000000000000011000110111 :
b10000000000000000011000110111 _
b101 W
b1 2"
b100 ~
b1000 !"
b100 +"
b101 ."
b10000000000000000011000110111 G
1C
1!
#100
0C
0!
#110
b101 %"
b101 &"
b101 $"
b1010000010100010011 :
b1010000010100010011 _
09
b110 W
b1010000010100010011 G
b110 ."
b10 2"
1C
1!
#120
0C
0!
#130
b10011 %"
b10011 &"
b1 }
b0 5
b0 A
b0 O
b1010000000000000100 ~
b10100010011 $"
b0 >
b0 j
1d
1[
1]
b0 k
b1010000000000000000 {
b1010000000000000000 '"
1u
0o
b111 W
b100 2"
b10100000101000100 /"
b111 ."
1C
1!
#140
0C
0!
#150
b110111 %"
b110111 &"
15"
b10100110111 $"
b10 5
b10 A
b10 O
b1000 >
b1000 j
0d
b10100110111 :
b10100110111 _
19
0[
b1000 W
b10100110111 G
b1000 ."
b1 2"
b1010000000000001000 ~
b1100 !"
b1000 +"
1C
1!
#160
0C
0!
#170
b11000110111 $"
09
b10000000000000000011000110111 :
b10000000000000000011000110111 _
b1001 W
b10 2"
b1001 ."
b10000000000000000011000110111 G
1C
1!
#180
0C
0!
#190
b100000000 Z
0b
b10000000000000000000000000000 e
b110111 %"
b110111 &"
1#"
b1 }
b1000011 5
b1000011 A
b1000011 O
b1000 ~
1""
0)"
b11000110111 $"
b100001100 >
b100001100 j
1d
b111111111111111111111111100000000 x
b100000000 w
b100000000 y
0]
b100001100 k
b1100 f
b10000000000000000000000000000 {
b100000000 ("
b100001100 |
b100001100 *"
b100000000 '"
0u
1o
b1010 W
b1010 ."
b100 2"
b100000000000000000110001101 /"
1C
1!
#200
0C
0!
#210
b11 5
b11 A
b11 O
b1000000100110111 $"
b1100 >
b1100 j
0d
19
b1000000100110111 :
b1000000100110111 _
b1011 W
b1 2"
b1100 ~
b10000 !"
b1100 +"
b1011 ."
b1000000100110111 G
1C
1!
#220
0C
0!
#230
1X
b11111111111111111111111110000011 %"
b10000011 &"
b10110000011 $"
b1010000010110000011 :
b1010000010110000011 _
09
b1100 W
b1010000010110000011 G
b1100 ."
b10 2"
1C
1!
#240
0C
0!
#250
b0 Z
1b
05"
0#"
b0 5
b0 A
b0 O
0""
1)"
b0 >
b0 j
1d
b0 x
b11111111111111111111111110000011 e
1a
19
b100000010110 ~
b0 w
b0 y
b0 k
b1011 f
b1010000000000000000 {
b0 ("
b1011 |
b100000001010 *"
b1010000000000000000 '"
1n
0o
b1101 W
b100 2"
b10100000101100000 /"
b1101 ."
1C
1!
#260
0C
0!
#270
0X
b110111 e
b110111 %"
b110111 &"
b10100110111 $"
09
b10100110111 :
b10100110111 _
b1110 W
b10100110111 G
b1110 ."
b1000 2"
b100000011010 ~
b10100 !"
b10000 +"
1C
1!
#280
0C
0!
#290
14"
b100 5
b100 A
b100 O
b10000 >
b10000 j
0d
19
b1111 W
b1 2"
b1111 ."
1C
1!
#300
0C
0!
#310
b1100011 e
b1100011 %"
b1100011 &"
b1000101001100011 $"
b1011000101001100011 :
b1011000101001100011 _
09
b10000 W
b1011000101001100011 G
b10000 ."
b10 2"
1C
1!
#320
0C
0!
#330
b110111 Z
0b
0X
15"
04"
b10010 5
b10010 A
b10010 O
b100100 ~
b0 %"
b1000 }
b1001011 >
b1001011 j
b0 e
0a
0^
b101 $"
b0 &"
b10100 f
b1011000000000000000 {
b10100 |
b10100 *"
b1011000000000000000 '"
0n
1r
b1001011 k
0)"
b10001 W
b100 2"
b10110001010011000 /"
b110111 w
b110111 x
b110111 Y
b110111 0"
b10001 ."
1C
1!
#340
0C
0!
#350
b1001101 %"
b1001101 &"
05"
14"
b100110111010001 $"
b101 5
b101 A
b101 O
b10100 >
b10100 j
b1001101110100011001011001100011 :
b1001101110100011001011001100011 _
19
b10010 W
b1001101110100011001011001100011 G
b10010 ."
b1 2"
b101000 ~
b11000 !"
b10100 +"
1C
1!
#360
0C
0!
#370
b0 %"
b0 &"
b10110110 $"
09
b101101100010000000100011 :
b101101100010000000100011 _
b10011 W
b10 2"
b10011 ."
b101101100010000000100011 G
1C
1!
#380
0C
0!
#390
b0 Z
04"
b0 5
b0 A
b0 O
b10100 ~
b0 >
b0 j
1a
16
b1111 7
b1111 `
b10000000100011 $"
b100011 &"
b101101100010000000100011 %"
b1111 }
b0 f
b100 v
b101101100010000000000000 {
b1011 ("
b0 |
b0 *"
b1100010100000001010 '"
1l
0r
0i
b1011 y
b110111 *
b110111 6"
b110111 8
b110111 g
b0 k
b10100 W
b10100 ."
b100 2"
b1011011000100000001000 /"
b110111 1"
b10000000000000000000000001011 w
b1111111111111111111111110101 x
b10000000000000000000000000000 Y
b10000000000000000000000000000 0"
1C
1!
#400
0C
0!
#410
b110111 &"
b10100110111 $"
b10100110111 %"
06
b0 7
b0 `
b10100110111 :
b10100110111 _
b10101 W
b1000 2"
b11000 ~
b11100 !"
b11000 +"
b10101 ."
b10100110111 G
1C
1!
#420
0C
0!
#430
15"
14"
b110111 $"
b110111 %"
b110 5
b110 A
b110 O
b11000 >
b11000 j
b110111 :
b110111 _
19
b10110 W
b110111 G
b10110 ."
b1 2"
1C
1!
#440
0C
0!
#450
b10011 &"
b10100010011 $"
b101010000010100010011 %"
09
b101010000010100010011 :
b101010000010100010011 _
b10111 W
b10 2"
b10111 ."
b101010000010100010011 G
1C
1!
#460
0C
0!
#470
b1 e
b1 Z
05"
04"
b0 5
b0 A
b0 O
b10100010011 $"
b101 &"
b1 >
b1 j
1d
0a
b101010000000000011000 ~
1[
b1 y
1]
b1 k
b101 %"
b10 }
1#"
b1010 f
b1 v
b101010000000000000000 {
b1 ("
b1010 |
b1010 *"
b1010000100000000000 '"
1u
0l
1i
bx *
bx 6"
bx 8
bx g
1""
b11000 W
b11000 ."
b100 2"
b1010100000101000100 /"
bx 1"
b1 w
b111111111111111111111111111111111 x
b0 Y
b0 0"
1C
1!
#480
0C
0!
#490
b0 %"
b0 &"
15"
14"
b111 5
b111 A
b111 O
b110111 $"
b11100 >
b11100 j
0d
19
0[
b110111 :
b110111 _
b11001 W
b1 2"
b101010000000000011100 ~
b100000 !"
b11100 +"
b11001 ."
b110111 G
1C
1!
#500
0C
0!
#510
1X
b11111111111111111111111111110000 %"
b11110000 &"
b1111000001101111 $"
b11111111000111111111000001101111 :
b11111111000111111111000001101111 _
09
b11010 W
b11111111000111111111000001101111 G
b11010 ."
b10 2"
1C
1!
#520
0C
0!
#530
b0xxx00000xx000000xxxx0 B
b0xxx00000xx000000xxxx0 L
xK
xJ
xI
x5"
x4"
bx :
bx _
bx000x Z
b100000 e
bx 5
bx A
bx O
x;
x=
x<
xb
b0xxxxxxxxxxxxxxxxxxxxxxxx >
b0xxxxxxxxxxxxxxxxxxxxxxxx j
1d
bx $"
bx &"
b11111111111111111111111111110001 y
0]
1^
bx %"
b1111 }
0X
b1100 ~
x#"
b0 f
b10000000 v
b11111111000111111111000000000000 {
b11111111111111111111111111110001 ("
b11111111111111111111111111100000 |
b11111111111111111111011111100000 *"
b11111111111111111111111111110000 '"
0u
1q
0i
bx k
x""
x)"
b11011 W
b100 2"
b111111110001111111110000011011 /"
bx w
bx x
bx Y
bx 0"
b11011 ."
1C
1!
#540
0C
0!
#550
b0 B
b0 L
0K
0J
0I
15"
04"
b11 5
b11 A
b11 O
0;
0=
1<
b1100 >
b1100 j
0d
0(
0N
b10000 e
19
b11100 W
b0xxx00000xx000000xxxx0 F
bx G
b11100 ."
b1 2"
b111111111111111111111100 ~
b10000 !"
b1100 +"
1C
1!
#560
0C
0!
#570
bx0000xxx &"
b0x0xx0000xx1 $"
b1010000010110000011 %"
09
b1010000010110000011 :
b1010000010110000011 _
b11101 W
b10 2"
b11101 ."
b1010000010110000011 G
b0 F
1C
1!
#580
0C
0!
#590
05"
b0 5
b0 A
b0 O
b1 Z
b1 >
b1 j
1d
b101 e
1a
19
0X
b10110000011 $"
b101 &"
0b
0#"
b0 y
0^
b101 %"
b10 }
b100000010110 ~
b1011 f
b1 v
b1010000000000000000 {
b0 ("
b1011 |
b100000001010 *"
b1010000000000000000 '"
1n
0q
1i
b0 *
b0 6"
b0 8
b0 g
b1 k
0""
0)"
b11110 W
b11110 ."
b100 2"
b10100000101100000 /"
b0 1"
b1 w
b1 x
b1 Y
b1 0"
1C
1!
#600
0C
0!
#610
b0 e
b0 %"
b0 &"
b110111 $"
09
b110111 :
b110111 _
b11111 W
b1000 2"
b100000011010 ~
b10100 !"
b10000 +"
b11111 ."
b110111 G
1C
1!
#620
0C
0!
#630
14"
b100 5
b100 A
b100 O
b10000 >
b10000 j
0d
19
b100000 W
b100000 ."
b1 2"
1C
1!
#640
0C
0!
#650
1X
b11111111111111111111111110001010 e
b11111111111111111111111110001010 %"
b10001010 &"
b1000101001100011 $"
09
b1011000101001100011 :
b1011000101001100011 _
b100001 W
b10 2"
b100001 ."
b1011000101001100011 G
1C
1!
#660
0C
0!
#670
1^
b0 Z
1b
0X
b1 }
b101 5
b101 A
b101 O
b100100 ~
b1000101001100011 $"
b1100011 %"
b10100 >
b10100 j
b0 e
0a
b1100011 &"
b10100 f
b1011000000000000000 {
b10100 |
b10100 *"
b1011000000000000000 '"
0n
1r
b10100 k
1)"
b100010 W
b100010 ."
b100 2"
b10110001010011000 /"
b0 w
b0 x
b0 Y
b0 0"
1C
1!
#680
0C
0!
#690
b100011 %"
b100011 &"
04"
b1001 5
b1001 A
b1001 O
b10000000100011 $"
b100100 >
b100100 j
19
b101101100010000000100011 :
b101101100010000000100011 _
b100011 W
b1 2"
b111000 ~
b101000 !"
b100100 +"
b100011 ."
b101101100010000000100011 G
1C
1!
#700
0C
0!
#710
b0 %"
b0 &"
b0 $"
b11001000000000000000000 :
b11001000000000000000000 _
09
b100100 W
b11001000000000000000000 G
b100100 ."
b10 2"
1C
1!
#720
0C
0!
#730
xX
bx e
bx Z
b0xxx00000xx000000xxxx0 B
b0xxx00000xx000000xxxx0 L
xb
bx %"
xK
xJ
xI
x5"
x4"
xN
bx :
bx _
x(
bx &"
bx 5
bx A
bx O
x;
x=
x<
b100100 ~
bx }
b0xxxxxxxxxxxxxxxxxxxxxxxx >
b0xxxxxxxxxxxxxxxxxxxxxxxx j
1d
1a
19
0^
bx $"
x#"
b0 f
b11001000000000000000000 {
b110 ("
b0 |
b0 *"
b1000000000000000110 '"
1n
0r
b110 y
bx *
bx 6"
bx 8
bx g
bx k
x""
x)"
b100101 W
b100 2"
b110010000000000000000 /"
bx 1"
bx w
bx x
bx Y
bx 0"
b100101 ."
1C
1!
#740
0C
0!
#750
0(
0N
09
b100110 W
b0xxx00000xx000000xxxx0 F
bx G
b100110 ."
b1000 2"
b101000 ~
b101100 !"
b101000 +"
1C
1!
#760
0C
0!
#770
b0 B
b0 L
0K
0J
0I
15"
04"
b1010 5
b1010 A
b1010 O
0;
0=
1<
b101000 >
b101000 j
0d
0(
0N
19
b100111 W
b1 2"
b100111 ."
1C
1!
#780
0C
0!
#790
bx0xxx e
bx0xxx %"
bx0xxx &"
b0xxx1xxx00xx $"
b10111000000000010110010011 :
b10111000000000010110010011 _
09
b101000 W
b0 F
b10111000000000010110010011 G
b101000 ."
b10 2"
1C
1!
#800
0C
0!
#810
b101110 Z
0b
1X
b1011 5
b1011 A
b1011 O
b11111111111111111111111111100000 %"
b100 }
b101110 >
b101110 j
1d
b101110 e
0a
b111000000000000000101000 ~
b1011100000 $"
b11100000 &"
1#"
1[
b101110 y
1]
b1011 f
b10111000000000000000000000 {
b101110 ("
b101011 |
b100000101010 *"
b101110 '"
0n
1u
b101110 k
1""
0)"
b101001 W
b100 2"
b101110000000000101100100 /"
b101110 w
b111111111111111111111111111010010 x
b0 Y
b0 0"
b101001 ."
1C
1!
#820
0C
0!
#830
b11111111111111111111111110110110 %"
b10110110 &"
b10110110 $"
b101100 >
b101100 j
0d
b101101100010000000100011 :
b101101100010000000100011 _
19
0[
b101010 W
b101101100010000000100011 G
b101010 ."
b1 2"
b111000000000000000101100 ~
b110000 !"
b101100 +"
1C
1!
#840
0C
0!
#850
09
b101011 W
b10 2"
b101011 ."
1C
1!
#860
0C
0!
#870
b0 Z
b0 e
05"
b10000000100011 $"
b0 5
b0 A
b0 O
b100011 &"
b0 >
b0 j
1a
0X
16
b1111 7
b1111 `
b101100 ~
b1011 y
0]
b0 k
b101101100010000000100011 %"
b1111 }
0#"
b0 f
b100 v
b101101100010000000000000 {
b1011 ("
b0 |
b0 *"
b1100010100000001010 '"
0u
1l
0i
b101110 *
b101110 6"
b101110 8
b101110 g
0""
b101100 W
b101100 ."
b100 2"
b1011011000100000001000 /"
b101110 1"
b10000000000000000000000001011 w
b1111111111111111111111110101 x
b10000000000000000000000000000 Y
b10000000000000000000000000000 0"
1C
1!
#880
0C
0!
#890
b110111 &"
b110111 $"
b110111 %"
06
b0 7
b0 `
b110111 :
b110111 _
b101101 W
b1000 2"
b110000 ~
b110100 !"
b110000 +"
b101101 ."
b110111 G
1C
1!
#900
0C
0!
#910
b101110 &"
14"
b101110 $"
b101110 %"
b1100 5
b1100 A
b1100 O
b110000 >
b110000 j
b101110 :
b101110 _
19
b101110 W
b101110 G
b101110 ."
b1 2"
1C
1!
#920
0C
0!
#930
b100011 &"
b10000000100011 $"
b101101100010000000100011 %"
09
b101101100010000000100011 :
b101101100010000000100011 _
b101111 W
b10 2"
b101111 ."
b101101100010000000100011 G
1C
1!
#940
0C
0!
#950
04"
b0 5
b0 A
b0 O
b0 >
b0 j
16
b1111 7
b1111 `
b110000 W
b110000 ."
b100 2"
1C
1!
#960
0C
0!
#970
b101110 &"
b101110 $"
b101110 %"
06
b0 7
b0 `
b101110 :
b101110 _
b110001 W
b1000 2"
b110100 ~
b111000 !"
b110100 +"
b110001 ."
b101110 G
1C
1!
#980
0C
0!
#990
14"
b1101 5
b1101 A
b1101 O
b110100 >
b110100 j
19
b110010 W
b110010 ."
b1 2"
1C
1!
#1000
0C
0!
#1010
b10010011 &"
b10010011 $"
b10010011 %"
09
b10010011 :
b10010011 _
b110011 W
b10 2"
b110011 ."
b10010011 G
1C
1!
#1020
0C
0!
#1030
1b
04"
b0 5
b0 A
b0 O
1)"
b10010011 $"
b10010011 &"
b11111111111111111111111110010011 %"
b0 >
b0 j
1d
0a
1X
b110100 ~
1[
b0 y
1]
b0 k
b1 }
0#"
b1 f
b1 v
b0 {
b0 ("
b1 |
b100000000000 *"
b0 '"
1u
0l
1i
b0 *
b0 6"
b0 8
b0 g
0""
b110100 W
b110100 ."
b100 2"
b100100 /"
b0 1"
b0 w
b0 x
b0 Y
b0 0"
1C
1!
#1040
0C
0!
#1050
0X
b101110 %"
b101110 &"
15"
14"
b1110 5
b1110 A
b1110 O
b101110 $"
b111000 >
b111000 j
0d
19
0[
b101110 :
b101110 _
b110101 W
b1 2"
b111000 ~
b111100 !"
b111000 +"
b110101 ."
b101110 G
1C
1!
#1060
0C
0!
#1070
b10011 %"
b10011 &"
b100010011 $"
b100010011 :
b100010011 _
09
b110110 W
b100010011 G
b110110 ."
b10 2"
1C
1!
#1080
0C
0!
#1090
05"
04"
b0 5
b0 A
b0 O
b0 >
b0 j
1d
1[
b10 f
b10 |
b10 *"
b110111 W
b100 2"
b1000100 /"
b110111 ."
1C
1!
#1100
0C
0!
#1110
b101110 %"
b101110 &"
15"
14"
b101110 $"
b1111 5
b1111 A
b1111 O
b111100 >
b111100 j
0d
b101110 :
b101110 _
19
0[
b111000 W
b101110 G
b111000 ."
b1 2"
b111100 ~
b1000000 !"
b111100 +"
1C
1!
#1120
0C
0!
#1130
1X
b11111111111111111111111110110011 %"
b10110011 &"
b1000000110110011 $"
09
b1000001000000110110011 :
b1000001000000110110011 _
b111001 W
b10 2"
b111001 ."
b1000001000000110110011 G
1C
1!
#1140
0C
0!
#1150
0X
b0 %"
05"
04"
b0 &"
b1000 }
b0 5
b0 A
b0 O
b1000001000000000111100 ~
b100000 $"
b11 >
b11 j
1d
1[
b11 k
b11 f
b1000001000000000000000 {
b10 ("
b11 |
b100000000010 *"
b1000000000000010 '"
0u
1t
b111010 W
b111010 ."
b100 2"
b10000010000001101100 /"
1C
1!
#1160
0C
0!
#1170
b10000 5
b10000 A
b10000 O
b0 $"
b1000000 >
b1000000 j
0d
19
0[
b101110 :
b101110 _
b111011 W
b1 2"
b1000001000000001000000 ~
b1000100 !"
b1000000 +"
b111011 ."
b101110 G
1C
1!
#1180
0C
0!
#1190
b111010010011 :
b111010010011 _
09
b111100 W
b111010010011 G
b111100 ."
b10 2"
1C
1!
#1200
0C
0!
#1210
1X
b11111111111111111111111110010011 %"
b10010011 &"
b1 }
b111010010011 $"
b0 5
b0 A
b0 O
b1000000 ~
b0 >
b0 j
1d
1[
b0 k
b11101 f
b0 {
b0 ("
b11101 |
b100000011100 *"
b0 '"
1u
0t
b111101 W
b100 2"
b1110100100 /"
b111101 ."
1C
1!
#1220
0C
0!
#1230
0X
b101110 %"
b101110 &"
b101110 $"
b10001 5
b10001 A
b10001 O
b1000100 >
b1000100 j
0d
b101110 :
b101110 _
19
0[
b111110 W
b101110 G
b111110 ."
b1 2"
b1000100 ~
b1001000 !"
b1000100 +"
1C
1!
#1240
0C
0!
#1250
b10011 %"
b10011 &"
b111000010011 $"
09
b1000000000111000010011 :
b1000000000111000010011 _
b111111 W
b10 2"
b111111 ."
b1000000000111000010011 G
1C
1!
#1260
0C
0!
#1270
b10 e
b10 Z
0b
b100000 %"
b100000 &"
b100 }
1#"
b100000 $"
b0 5
b0 A
b0 O
b1000000000000001000100 ~
1""
0)"
b10 >
b10 j
1d
b111111111111111111111111111111110 x
b10 k
1[
b10 w
b10 y
b11100 f
b1000000000000000000000 {
b10 ("
b11100 |
b11100 *"
b10 '"
b1000000 W
b1000000 ."
b100 2"
b10000000001110000100 /"
1C
1!
#1280
0C
0!
#1290
b0 %"
b0 &"
15"
b10010 5
b10010 A
b10010 O
b0 $"
b1001000 >
b1001000 j
0d
19
0[
b101110 :
b101110 _
b1000001 W
b1 2"
b1000000000000001001000 ~
b1001100 !"
b1001000 +"
b1000001 ."
b101110 G
1C
1!
#1300
0C
0!
#1310
1X
b11111111111111111111111111010001 %"
b11010001 &"
b100110111010001 $"
b1001101110100011001011001100011 :
b1001101110100011001011001100011 _
09
b1000010 W
b1001101110100011001011001100011 G
b1000010 ."
b10 2"
1C
1!
#1320
0C
0!
#1330
0^
0b
b0 e
b1100011 &"
bx Z
0#"
b100110011 5
b100110011 A
b100110011 O
0""
1)"
b1001011001100011 $"
b10011001100 >
b10011001100 j
1\
b0 x
1X
b10100010100 ~
b0 w
b0 y
0]
b10011001100 k
b11111111111111111001011001100011 %"
b11 }
b1100 f
b10 v
b1001101110100011001000000000000 {
b10011011101 ("
b10011001100 |
b10011001100 *"
b11001110011011100 '"
0u
1r
0i
1h
b1000011 W
b100 2"
b10011011101000110010110011000 /"
b1000011 ."
1C
1!
#1340
0C
0!
#1350
0X
b10011 &"
b111000010011 %"
b111000010011 $"
b10011 5
b10011 A
b10011 O
b1001100 >
b1001100 j
b10001100000000111000010011 :
b10001100000000111000010011 _
19
b1000100 W
b10001100000000111000010011 G
b1000100 ."
b1 2"
b10100011000 ~
b1010000 !"
b1001100 +"
1C
1!
#1360
0C
0!
#1370
b10010011 &"
b10010011 %"
b10010011 $"
09
b100000000000010010011 :
b100000000000010010011 _
b1000101 W
b10 2"
b1000101 ."
b100000000000010010011 G
1C
1!
#1380
0C
0!
#1390
0b
b1 e
1#"
05"
b1 Z
1""
0)"
b0 5
b0 A
b0 O
0a
b111111111111111111111111111111111 x
b0 &"
b0 %"
b1 >
b1 j
1d
0\
b1 w
b1 y
0X
b100000000000001001100 ~
1[
1]
b1 k
b10 }
b1 f
b1 v
b100000000000000000000 {
b1 ("
b1 |
b100000000000 *"
b100000000000 '"
1u
0r
1i
0h
b1000110 W
b1000110 ."
b100 2"
b1000000000000100100 /"
1C
1!
#1400
0C
0!
#1410
14"
b10100 5
b10100 A
b10100 O
b101110 $"
b1010000 >
b1010000 j
0d
19
0[
b101110 :
b101110 _
b1000111 W
b1 2"
b100000000000001010000 ~
b1010100 !"
b1010000 +"
b1000111 ."
b101110 G
1C
1!
#1420
0C
0!
#1430
b1 %"
b1 &"
b100010011 $"
b100000000000100010011 :
b100000000000100010011 _
09
b1001000 W
b100000000000100010011 G
b1001000 ."
b10 2"
1C
1!
#1440
0C
0!
#1450
04"
b0 5
b0 A
b0 O
b1 >
b1 j
1d
1[
b10 f
b10 |
b10 *"
b1000000000000000100000001 *
b1000000000000000100000001 6"
b1000000000000000100000001 8
b1000000000000000100000001 g
b1001001 W
b100 2"
b1000000000001000100 /"
b1 1"
b1001001 ."
1C
1!
#1460
0C
0!
#1470
b0 %"
b0 &"
14"
b101110 $"
b10101 5
b10101 A
b10101 O
b1010100 >
b1010100 j
0d
b101110 :
b101110 _
19
0[
b1001010 W
b101110 G
b1001010 ."
b1 2"
b100000000000001010100 ~
b1011000 !"
b1010100 +"
1C
1!
#1480
0C
0!
#1490
1X
b11111111111111111111111110000001 %"
b10000001 &"
b1000000110110011 $"
09
b1000001000000110110011 :
b1000001000000110110011 _
b1001011 W
b10 2"
b1001011 ."
b1000001000000110110011 G
1C
1!
#1500
0C
0!
#1510
b10 e
b10 Z
1X
1b
04"
b1 5
b1 A
b1 O
b1000001000000001010100 ~
b11111111111111111111111110110011 %"
b1 }
b100 >
b100 j
1d
b1000000110110011 $"
b10110011 &"
b1 *
b1 6"
b1 8
b1 g
1[
0#"
b11 f
b1000001000000000000000 {
b10 ("
b11 |
b100000000010 *"
b1000000000000010 '"
0u
1t
b100 k
0""
1)"
b1001100 W
b1001100 ."
b100 2"
b10000010000001101100 /"
b10 w
b0 x
b1 Y
b1 0"
1C
1!
#1520
0C
0!
