femtorv32/FemtoRV/RTL/testbench.vcd
$date
	Sat Sep 10 14:06:05 2022
$end
$version
	Icarus Verilog
$end
$timescale
	1s
$end
$scope module testbench $end
$var reg 1 ! clk $end
$var reg 1 " reset $end
$scope module ITA_CORE $end
$var wire 1 " RESET $end
$var wire 1 # RXD $end
$var wire 1 $ RXD_internal $end
$var wire 1 % TXD $end
$var wire 1 & io_rbusy $end
$var wire 1 ' io_rstrb $end
$var wire 1 ( io_wbusy $end
$var wire 32 ) io_wdata [31:0] $end
$var wire 1 * io_wstrb $end
$var wire 1 + mem_rbusy $end
$var wire 1 , mem_wbusy $end
$var wire 1 ! pclk $end
$var wire 1 - reset $end
$var wire 1 . spi_miso $end
$var wire 32 / uart_rdata [31:0] $end
$var wire 1 0 uart_brk $end
$var wire 1 1 spi_mosi $end
$var wire 1 2 spi_cs_n $end
$var wire 1 3 spi_clk $end
$var wire 20 4 ram_word_address [19:0] $end
$var wire 1 5 mem_wstrb $end
$var wire 4 6 mem_wmask [3:0] $end
$var wire 32 7 mem_wdata [31:0] $end
$var wire 1 8 mem_rstrb $end
$var wire 32 9 mem_rdata [31:0] $end
$var wire 1 : mem_address_is_spi_flash $end
$var wire 1 ; mem_address_is_ram $end
$var wire 1 < mem_address_is_io $end
$var wire 32 = mem_address [31:0] $end
$var wire 32 > mapped_spi_flash_rdata [31:0] $end
$var wire 1 ? mapped_spi_flash_rbusy $end
$var wire 20 @ io_word_address [19:0] $end
$var wire 32 A hwconfig_rdata [31:0] $end
$var wire 1 B clk $end
$var wire 1 C board_led $end
$var wire 1 D TXD_internal $end
$var reg 1 E error $end
$var reg 32 F io_rdata [31:0] $end
$var reg 32 G ram_rdata [31:0] $end
$var reg 16 H reset_cnt [15:0] $end
$scope module hwconfig $end
$var wire 1 I sel_cpuinfo $end
$var wire 1 J sel_devices $end
$var wire 1 K sel_memory $end
$var wire 32 L rdata [31:0] $end
$var wire 1 B clk $end
$upscope $end
$scope module mapped_spi_flash $end
$var wire 1 3 CLK $end
$var wire 1 . MISO $end
$var wire 1 M busy $end
$var wire 1 N rstrb $end
$var wire 20 O word_address [19:0] $end
$var wire 1 P sending $end
$var wire 1 Q receiving $end
$var wire 32 R rdata [31:0] $end
$var wire 1 ? rbusy $end
$var wire 1 B clk $end
$var wire 1 1 MOSI $end
$var reg 1 2 CS_N $end
$var reg 32 S cmd_addr [31:0] $end
$var reg 6 T rcv_bitcount [5:0] $end
$var reg 32 U rcv_data [31:0] $end
$var reg 6 V snd_bitcount [5:0] $end
$upscope $end
$scope module my_debug_led $end
$var wire 1 ! clk $end
$var wire 1 C led $end
$var reg 26 W counter [25:0] $end
$upscope $end
$scope module pll $end
$var wire 1 B clk $end
$var wire 1 ! pclk $end
$upscope $end
$scope module processor $end
$var wire 1 X LOAD_sign $end
$var wire 32 Y aluIn1 [31:0] $end
$var wire 32 Z aluOut [31:0] $end
$var wire 1 [ aluWr $end
$var wire 1 B clk $end
$var wire 1 \ funct3IsShift $end
$var wire 1 ] isALU $end
$var wire 1 ^ jumpToPCplusImm $end
$var wire 1 + mem_rbusy $end
$var wire 32 _ mem_rdata [31:0] $end
$var wire 1 8 mem_rstrb $end
$var wire 1 , mem_wbusy $end
$var wire 4 ` mem_wmask [3:0] $end
$var wire 1 a needToWait $end
$var wire 1 b predicate $end
$var wire 1 c reset $end
$var wire 1 d writeBack $end
$var wire 32 e writeBackData [31:0] $end
$var wire 5 f rdId [4:0] $end
$var wire 32 g mem_wdata [31:0] $end
$var wire 1 h mem_halfwordAccess $end
$var wire 1 i mem_byteAccess $end
$var wire 32 j mem_addr [31:0] $end
$var wire 24 k loadstore_addr [23:0] $end
$var wire 1 l isStore $end
$var wire 1 m isSYSTEM $end
$var wire 1 n isLoad $end
$var wire 1 o isLUI $end
$var wire 1 p isJALR $end
$var wire 1 q isJAL $end
$var wire 1 r isBranch $end
$var wire 1 s isAUIPC $end
$var wire 1 t isALUreg $end
$var wire 1 u isALUimm $end
$var wire 8 v funct3Is [7:0] $end
$var wire 32 w aluPlus [31:0] $end
$var wire 33 x aluMinus [32:0] $end
$var wire 32 y aluIn2 [31:0] $end
$var wire 1 z aluBusy $end
$var wire 32 { Uimm [31:0] $end
$var wire 32 | Simm [31:0] $end
$var wire 4 } STORE_wmask [3:0] $end
$var wire 24 ~ PCplusImm [23:0] $end
$var wire 24 !" PCplus4 [23:0] $end
$var wire 1 "" LTU $end
$var wire 1 #" LT $end
$var wire 16 $" LOAD_halfword [15:0] $end
$var wire 32 %" LOAD_data [31:0] $end
$var wire 8 &" LOAD_byte [7:0] $end
$var wire 32 '" Jimm [31:0] $end
$var wire 32 (" Iimm [31:0] $end
$var wire 1 )" EQ $end
$var wire 32 *" Bimm [31:0] $end
$var reg 24 +" PC [23:0] $end
$var reg 32 ," aluReg [31:0] $end
$var reg 5 -" aluShamt [4:0] $end
$var reg 32 ." cycles [31:0] $end
$var reg 30 /" instr [31:2] $end
$var reg 32 0" rs1 [31:0] $end
$var reg 32 1" rs2 [31:0] $end
$var reg 4 2" state [3:0] $end
$upscope $end
$scope module uart $end
$var wire 1 $ RXD $end
$var wire 1 B clk $end
$var wire 1 ' rstrb $end
$var wire 1 3" sel_cntl $end
$var wire 1 4" sel_dat $end
$var wire 32 5" wdata [31:0] $end
$var wire 1 * wstrb $end
$var wire 1 6" serial_valid $end
$var wire 1 7" serial_tx_busy $end
$var wire 8 8" rx_data [7:0] $end
$var wire 32 9" rdata [31:0] $end
$var wire 1 D TXD $end
$var reg 1 0 brk $end
$scope module the_buart $end
$var wire 1 B clk $end
$var wire 1 :" rd $end
$var wire 1 ;" resetq $end
$var wire 1 $ rx $end
$var wire 8 <" rx_data [7:0] $end
$var wire 8 =" tx_data [7:0] $end
$var wire 1 6" valid $end
$var wire 1 >" wr $end
$var wire 1 D tx $end
$var wire 1 ?" send_baud_clk $end
$var wire 1 @" recv_baud_clk $end
$var wire 1 7" busy $end
$var reg 8 A" recv_buf_data [7:0] $end
$var reg 1 6" recv_buf_valid $end
$var reg 8 B" recv_divcnt [7:0] $end
$var reg 9 C" recv_pattern [8:0] $end
$var reg 1 D" recv_state $end
$var reg 8 E" send_divcnt [7:0] $end
$var reg 10 F" send_pattern [9:0] $end
$upscope $end
$upscope $end
$upscope $end
$upscope $end
$enddefinitions $end
#0
$dumpvars
b1 F"
bx E"
xD"
bx C"
bx B"
bx A"
x@"
x?"
x>"
bx ="
bx <"
x;"
x:"
b0xxxxxxxxx 9"
bx 8"
07"
x6"
bx 5"
x4"
x3"
bx 2"
bx 1"
bx 0"
bx /"
b0 ."
b0 -"
bx ,"
bx +"
bx0 *"
x)"
bx ("
bx0 '"
bx &"
bx %"
bx $"
x#"
x""
bx !"
bx ~
bx }
bx |
bx000000000000 {
0z
bx y
bx x
bx w
bx v
xu
xt
xs
xr
xq
xp
xo
xn
xm
xl
bx k
b0xxxxxxxxxxxxxxxxxxxxxxxx j
xi
xh
bx g
bx f
bx e
xd
0c
xb
xa
bx `
bx _
x^
x]
x\
x[
bx Z
bx Y
xX
b0 W
bx V
bx U
bx T
bx S
bx R
xQ
xP
bx O
xN
xM
b0xxx00000xx000000xxxx0 L
xK
xJ
xI
b0 H
bx G
bx F
0E
1D
1C
0B
b0xxx00000xx000000xxxx0 A
bx @
0?
bx >
b0xxxxxxxxxxxxxxxxxxxxxxxx =
x<
x;
x:
bx 9
x8
bx 7
bx 6
x5
bx 4
03
12
x1
x0
b0xxxxxxxxx /
z.
0-
0,
0+
x*
bx )
0(
x'
0&
1%
z$
z#
0"
0!
$end
#10
0:"
0>"
0'
0N
0*
08
05
b0 6
b0 `
0[
b1 W
b1 H
b100 !"
b0 +"
b1000 2"
b1 ."
b0xxx00000xx00xxxxxxxxx F
1B
1!
#20
b0 H
xc
0B
0!
1-
1"
#30
b0 A
b0 L
b0 /
b0 9"
0K
0J
0I
04"
03"
b0 4
b0 @
b0 O
0:
0<
1;
0:"
b0 =
b0 j
0d
0'
0N
18
b10 W
b10 ."
b1 2"
1B
1!
#40
0B
0!
#50
0X
b0x0x00xx0xxx %"
b0xx0xxx &"
b0x0x00xx0xxx $"
08
b10100110111 9
b10100110111 _
b11 W
b10 2"
b11 ."
b10100110111 G
b0 F
1B
1!
#60
0B
0!
#70
1b
b0 Z
b0 &"
b0 e
b0xxxxxxxxx /
b0xxxxxxxxx 9"
b100 }
14"
0#"
b0 $"
b10 4
b10 @
b10 O
b0 ~
0""
1)"
b1010 =
b1010 j
1d
0\
b0 x
b1010 k
0a
0^
b0 w
b0 y
0]
b0 %"
b0 ="
b1010 f
b1 v
b0 {
b0 ("
b1010 |
b1010 *"
b0 '"
0n
0u
0s
0l
0t
1o
0r
0p
0q
0m
1i
0h
b0 )
b0 5"
b0 7
b0 g
b100 W
b100 ."
b100 2"
b101001101 /"
b0 1"
b0 Y
b0 0"
1B
1!
#80
0B
0!
#90
b0 /
b0 9"
04"
b1 4
b1 @
b1 O
b1000000000000 $"
b100 =
b100 j
0d
18
b10000000000000000011000110111 9
b10000000000000000011000110111 _
b101 W
b1 2"
b100 ~
b1000 !"
b100 +"
b101 ."
b10000000000000000011000110111 G
b0xxxxxxxxx F
1B
1!
#100
0B
0!
#110
b101 %"
b101 &"
b101 $"
b1010000010100010011 9
b1010000010100010011 _
08
b110 W
b0 F
b1010000010100010011 G
b110 ."
b10 2"
1B
1!
#120
0B
0!
#130
b10011 %"
b10011 &"
b1 }
b0 4
b0 @
b0 O
b1010000000000000100 ~
b10100010011 $"
b0 =
b0 j
1d
1[
1]
b0 k
b1010000000000000000 {
b1010000000000000000 '"
1u
0o
b111 W
b100 2"
b10100000101000100 /"
b111 ."
1B
1!
#140
0B
0!
#150
b110111 %"
b110111 &"
b0xxxxxxxxx /
b0xxxxxxxxx 9"
14"
b10100110111 $"
b10 4
b10 @
b10 O
b1000 =
b1000 j
0d
b10100110111 9
b10100110111 _
18
0[
b1000 W
b10100110111 G
b1000 ."
b1 2"
b1010000000000001000 ~
b1100 !"
b1000 +"
1B
1!
#160
0B
0!
#170
b11000110111 $"
08
b10000000000000000011000110111 9
b10000000000000000011000110111 _
b1001 W
b10 2"
b1001 ."
b10000000000000000011000110111 G
b0xxxxxxxxx F
1B
1!
#180
0B
0!
#190
b100000000 Z
0b
b10000000000000000000000000000 e
b110111 %"
b110111 &"
1#"
b1 }
b1000011 4
b1000011 @
b1000011 O
b1000 ~
1""
0)"
b11000110111 $"
b100001100 =
b100001100 j
1d
b111111111111111111111111100000000 x
b100000000 w
b100000000 y
0]
b100001100 k
b1100 f
b10000000000000000000000000000 {
b100000000 ("
b100001100 |
b100001100 *"
b100000000 '"
0u
1o
b1010 W
b1010 ."
b100 2"
b100000000000000000110001101 /"
1B
1!
#200
0B
0!
#210
b11 4
b11 @
b11 O
b1000000100110111 $"
b1100 =
b1100 j
0d
18
b1000000100110111 9
b1000000100110111 _
b1011 W
b1 2"
b1100 ~
b10000 !"
b1100 +"
b1011 ."
b1000000100110111 G
1B
1!
#220
0B
0!
#230
1X
b11111111111111111111111110000011 %"
b10000011 &"
b10110000011 $"
b1010000010110000011 9
b1010000010110000011 _
08
b1100 W
b1010000010110000011 G
b1100 ."
b10 2"
1B
1!
#240
0B
0!
#250
b0 Z
1b
b0 /
b0 9"
04"
0#"
b0 4
b0 @
b0 O
0""
1)"
b0 =
b0 j
1d
b0 x
b11111111111111111111111110000011 e
1a
18
b100000010110 ~
b0 w
b0 y
b0 k
b1011 f
b1010000000000000000 {
b0 ("
b1011 |
b100000001010 *"
b1010000000000000000 '"
1n
0o
b1101 W
b100 2"
b10100000101100000 /"
b1101 ."
1B
1!
#260
0B
0!
#270
0X
b110111 e
b110111 %"
b110111 &"
b10100110111 $"
08
b10100110111 9
b10100110111 _
b1110 W
b0 F
b10100110111 G
b1110 ."
b1000 2"
b100000011010 ~
b10100 !"
b10000 +"
1B
1!
#280
0B
0!
#290
b0x00000000 /
b0x00000000 9"
13"
b100 4
b100 @
b100 O
b10000 =
b10000 j
0d
18
b1111 W
b1 2"
b1111 ."
1B
1!
#300
0B
0!
#310
b1100011 e
b1100011 %"
b1100011 &"
b1000101001100011 $"
b1011000101001100011 9
b1011000101001100011 _
08
b10000 W
b0x00000000 F
b1011000101001100011 G
b10000 ."
b10 2"
1B
1!
#320
0B
0!
#330
b110111 Z
0b
b0xxxxxxxxx /
b0xxxxxxxxx 9"
0X
14"
03"
b10010 4
b10010 @
b10010 O
b100100 ~
b0 %"
b1000 }
b1001011 =
b1001011 j
b0 e
0a
0^
b101 $"
b0 &"
b10100 f
b1011000000000000000 {
b10100 |
b10100 *"
b1011000000000000000 '"
0n
1r
b1001011 k
0)"
b10001 W
b100 2"
b10110001010011000 /"
b110111 w
b110111 x
b110111 Y
b110111 0"
b10001 ."
1B
1!
#340
0B
0!
#350
b1001101 %"
b1001101 &"
b0x00000000 /
b0x00000000 9"
04"
13"
b100110111010001 $"
b101 4
b101 @
b101 O
b10100 =
b10100 j
b1001101110100011001011001100011 9
b1001101110100011001011001100011 _
18
b10010 W
b0xxxxxxxxx F
b1001101110100011001011001100011 G
b10010 ."
b1 2"
b101000 ~
b11000 !"
b10100 +"
1B
1!
#360
0B
0!
#370
b0 %"
b0 &"
b10110110 $"
08
b101101100010000000100011 9
b101101100010000000100011 _
b10011 W
b10 2"
b10011 ."
b101101100010000000100011 G
b0x00000000 F
1B
1!
#380
0B
0!
#390
b0 Z
b0 /
b0 9"
03"
b0 4
b0 @
b0 O
b10100 ~
b0 =
b0 j
1a
15
b1111 6
b1111 `
b10000000100011 $"
b100011 &"
b101101100010000000100011 %"
b1111 }
b110111 ="
b0 f
b100 v
b101101100010000000000000 {
b1011 ("
b0 |
b0 *"
b1100010100000001010 '"
1l
0r
0i
b1011 y
b110111 )
b110111 5"
b110111 7
b110111 g
b0 k
b10100 W
b10100 ."
b100 2"
b1011011000100000001000 /"
b110111 1"
b10000000000000000000000001011 w
b1111111111111111111111110101 x
b10000000000000000000000000000 Y
b10000000000000000000000000000 0"
1B
1!
#400
0B
0!
#410
b110111 &"
b10100110111 $"
b10100110111 %"
05
b0 6
b0 `
b10100110111 9
b10100110111 _
b10101 W
b1000 2"
b11000 ~
b11100 !"
b11000 +"
b10101 ."
b10100110111 G
b0 F
1B
1!
#420
0B
0!
#430
b0xxxxxxxxx /
b0xxxxxxxxx 9"
14"
13"
b110111 $"
b110111 %"
b110 4
b110 @
b110 O
b11000 =
b11000 j
b110111 9
b110111 _
18
b10110 W
b110111 G
b10110 ."
b1 2"
1B
1!
#440
0B
0!
#450
b10011 &"
b10100010011 $"
b101010000010100010011 %"
08
b101010000010100010011 9
b101010000010100010011 _
b10111 W
b10 2"
b10111 ."
b101010000010100010011 G
b0xxxxxxxxx F
1B
1!
#460
0B
0!
#470
b1 e
b1 Z
b0 /
b0 9"
04"
03"
b0 4
b0 @
b0 O
b10100010011 $"
b101 &"
b1 =
b1 j
1d
0a
b101010000000000011000 ~
1[
b1 y
1]
b1 k
b101 %"
b10 }
bx ="
1#"
b1010 f
b1 v
b101010000000000000000 {
b1 ("
b1010 |
b1010 *"
b1010000100000000000 '"
1u
0l
1i
bx )
bx 5"
bx 7
bx g
1""
b11000 W
b11000 ."
b100 2"
b1010100000101000100 /"
bx 1"
b1 w
b111111111111111111111111111111111 x
b0 Y
b0 0"
1B
1!
#480
0B
0!
#490
b0 %"
b0xxxxxxxxx /
b0xxxxxxxxx 9"
b0 &"
14"
13"
b111 4
b111 @
b111 O
b110111 $"
b11100 =
b11100 j
0d
18
0[
b110111 9
b110111 _
b11001 W
b1 2"
b101010000000000011100 ~
b100000 !"
b11100 +"
b11001 ."
b110111 G
b0 F
1B
1!
#500
0B
0!
#510
1X
b11111111111111111111111111110000 %"
b11110000 &"
b1111000001101111 $"
b11111111000111111111000001101111 9
b11111111000111111111000001101111 _
08
b11010 W
b0xxxxxxxxx F
b11111111000111111111000001101111 G
b11010 ."
b10 2"
1B
1!
#520
0B
0!
#530
b0xxx00000xx000000xxxx0 A
b0xxx00000xx000000xxxx0 L
xK
xJ
xI
x4"
x3"
bx 9
bx _
bx000x Z
b100000 e
bx 4
bx @
bx O
x:
x<
x;
xb
b0xxxxxxxxxxxxxxxxxxxxxxxx =
b0xxxxxxxxxxxxxxxxxxxxxxxx j
1d
bx $"
bx &"
b11111111111111111111111111110001 y
0]
1^
bx %"
b1111 }
0X
b1100 ~
x#"
b0 f
b10000000 v
b11111111000111111111000000000000 {
b11111111111111111111111111110001 ("
b11111111111111111111111111100000 |
b11111111111111111111011111100000 *"
b11111111111111111111111111110000 '"
0u
1q
0i
bx k
x""
x)"
b11011 W
b100 2"
b111111110001111111110000011011 /"
bx w
bx x
bx Y
bx 0"
b11011 ."
1B
1!
#540
0B
0!
#550
b0 A
b0 L
0K
0J
0I
14"
03"
b11 4
b11 @
b11 O
0:
0<
1;
0:"
b1100 =
b1100 j
0d
0'
0N
b10000 e
18
b11100 W
b0xxx00000xx00xxxxxxxxx F
bx G
b11100 ."
b1 2"
b111111111111111111111100 ~
b10000 !"
b1100 +"
1B
1!
#560
0B
0!
#570
bx0000xxx &"
b0x0xx0000xx1 $"
b1010000010110000011 %"
08
b1010000010110000011 9
b1010000010110000011 _
b11101 W
b10 2"
b11101 ."
b1010000010110000011 G
b0xxxxxxxxx F
1B
1!
#580
0B
0!
#590
b0 /
b0 9"
04"
b0 4
b0 @
b0 O
b1 Z
b1 =
b1 j
1d
b101 e
1a
18
0X
b10110000011 $"
b101 &"
0b
0#"
b0 y
0^
b101 %"
b10 }
b100000010110 ~
b0 ="
b1011 f
b1 v
b1010000000000000000 {
b0 ("
b1011 |
b100000001010 *"
b1010000000000000000 '"
1n
0q
1i
b0 )
b0 5"
b0 7
b0 g
b1 k
0""
0)"
b11110 W
b11110 ."
b100 2"
b10100000101100000 /"
b0 1"
b1 w
b1 x
b1 Y
b1 0"
1B
1!
#600
0B
0!
#610
b0 e
b0 %"
b0 &"
b110111 $"
08
b110111 9
b110111 _
b11111 W
b1000 2"
b100000011010 ~
b10100 !"
b10000 +"
b11111 ."
b110111 G
b0 F
1B
1!
#620
0B
0!
#630
b0x00000000 /
b0x00000000 9"
13"
b100 4
b100 @
b100 O
b10000 =
b10000 j
0d
18
b100000 W
b100000 ."
b1 2"
1B
1!
#640
0B
0!
#650
1X
b11111111111111111111111110001010 e
b11111111111111111111111110001010 %"
b10001010 &"
b1000101001100011 $"
08
b1011000101001100011 9
b1011000101001100011 _
b100001 W
b10 2"
b100001 ."
b1011000101001100011 G
b0x00000000 F
1B
1!
#660
0B
0!
#670
1^
b0 Z
1b
0X
b1 }
b101 4
b101 @
b101 O
b100100 ~
b1000101001100011 $"
b1100011 %"
b10100 =
b10100 j
b0 e
0a
b1100011 &"
b10100 f
b1011000000000000000 {
b10100 |
b10100 *"
b1011000000000000000 '"
0n
1r
b10100 k
1)"
b100010 W
b100010 ."
b100 2"
b10110001010011000 /"
b0 w
b0 x
b0 Y
b0 0"
1B
1!
#680
0B
0!
#690
b0 /
b0 9"
b100011 %"
b100011 &"
03"
b1001 4
b1001 @
b1001 O
b10000000100011 $"
b100100 =
b100100 j
18
b101101100010000000100011 9
b101101100010000000100011 _
b100011 W
b1 2"
b111000 ~
b101000 !"
b100100 +"
b100011 ."
b101101100010000000100011 G
1B
1!
#700
0B
0!
#710
b0 %"
b0 &"
b0 $"
b11001000000000000000000 9
b11001000000000000000000 _
08
b100100 W
b0 F
b11001000000000000000000 G
b100100 ."
b10 2"
1B
1!
#720
0B
0!
#730
xX
bx e
bx Z
b0xxx00000xx000000xxxx0 A
b0xxx00000xx000000xxxx0 L
xb
b0xxxxxxxxx /
b0xxxxxxxxx 9"
x:"
bx %"
xK
xJ
xI
x4"
x3"
xN
bx 9
bx _
x'
bx &"
bx 4
bx @
bx O
x:
x<
x;
b100100 ~
bx }
b0xxxxxxxxxxxxxxxxxxxxxxxx =
b0xxxxxxxxxxxxxxxxxxxxxxxx j
1d
1a
18
0^
bx $"
bx ="
x#"
b0 f
b11001000000000000000000 {
b110 ("
b0 |
b0 *"
b1000000000000000110 '"
1n
0r
b110 y
bx )
bx 5"
bx 7
bx g
bx k
x""
x)"
b100101 W
b100 2"
b110010000000000000000 /"
bx 1"
bx w
bx x
bx Y
bx 0"
b100101 ."
1B
1!
#740
0B
0!
#750
0:"
0'
0N
08
b100110 W
b0xxx00000xx00xxxxxxxxx F
bx G
b100110 ."
b1000 2"
b101000 ~
b101100 !"
b101000 +"
1B
1!
#760
0B
0!
#770
b0 A
b0 L
0K
0J
0I
14"
03"
b1010 4
b1010 @
b1010 O
0:
0<
1;
0:"
b101000 =
b101000 j
0d
0'
0N
18
b100111 W
b1 2"
b100111 ."
1B
1!
#780
0B
0!
#790
bx0xxx e
bx0xxx %"
bx0xxx &"
b0xxx1xxx00xx $"
b10111000000000010110010011 9
b10111000000000010110010011 _
08
b101000 W
b0xxxxxxxxx F
b10111000000000010110010011 G
b101000 ."
b10 2"
1B
1!
#800
0B
0!
#810
b101110 Z
0b
1X
b1011 4
b1011 @
b1011 O
b11111111111111111111111111100000 %"
b100 }
b101110 =
b101110 j
1d
b101110 e
0a
b111000000000000000101000 ~
b1011100000 $"
b11100000 &"
1#"
1[
b101110 y
1]
b1011 f
b10111000000000000000000000 {
b101110 ("
b101011 |
b100000101010 *"
b101110 '"
0n
1u
b101110 k
1""
0)"
b101001 W
b100 2"
b101110000000000101100100 /"
b101110 w
b111111111111111111111111111010010 x
b0 Y
b0 0"
b101001 ."
1B
1!
#820
0B
0!
#830
b11111111111111111111111110110110 %"
b10110110 &"
b10110110 $"
b101100 =
b101100 j
0d
b101101100010000000100011 9
b101101100010000000100011 _
18
0[
b101010 W
b101101100010000000100011 G
b101010 ."
b1 2"
b111000000000000000101100 ~
b110000 !"
b101100 +"
1B
1!
#840
0B
0!
#850
08
b101011 W
b10 2"
b101011 ."
1B
1!
#860
0B
0!
#870
b0 Z
b0 e
b0 /
b0 9"
04"
b10000000100011 $"
b0 4
b0 @
b0 O
b100011 &"
b0 =
b0 j
1a
0X
15
b1111 6
b1111 `
b101100 ~
b1011 y
0]
b0 k
b101101100010000000100011 %"
b1111 }
b101110 ="
0#"
b0 f
b100 v
b101101100010000000000000 {
b1011 ("
b0 |
b0 *"
b1100010100000001010 '"
0u
1l
0i
b101110 )
b101110 5"
b101110 7
b101110 g
0""
b101100 W
b101100 ."
b100 2"
b1011011000100000001000 /"
b101110 1"
b10000000000000000000000001011 w
b1111111111111111111111110101 x
b10000000000000000000000000000 Y
b10000000000000000000000000000 0"
1B
1!
#880
0B
0!
#890
b110111 &"
b110111 $"
b110111 %"
05
b0 6
b0 `
b110111 9
b110111 _
b101101 W
b1000 2"
b110000 ~
b110100 !"
b110000 +"
b101101 ."
b110111 G
b0 F
1B
1!
#900
0B
0!
#910
b0x00000000 /
b0x00000000 9"
b101110 &"
13"
b101110 $"
b101110 %"
b1100 4
b1100 @
b1100 O
b110000 =
b110000 j
b101110 9
b101110 _
18
b101110 W
b101110 G
b101110 ."
b1 2"
1B
1!
#920
0B
0!
#930
b100011 &"
b10000000100011 $"
b101101100010000000100011 %"
08
b101101100010000000100011 9
b101101100010000000100011 _
b101111 W
b10 2"
b101111 ."
b101101100010000000100011 G
b0x00000000 F
1B
1!
#940
0B
0!
#950
b0 /
b0 9"
03"
b0 4
b0 @
b0 O
b0 =
b0 j
15
b1111 6
b1111 `
b110000 W
b110000 ."
b100 2"
1B
1!
#960
0B
0!
#970
b101110 &"
b101110 $"
b101110 %"
05
b0 6
b0 `
b101110 9
b101110 _
b110001 W
b1000 2"
b110100 ~
b111000 !"
b110100 +"
b110001 ."
b101110 G
b0 F
1B
1!
#980
0B
0!
#990
b0x00000000 /
b0x00000000 9"
13"
b1101 4
b1101 @
b1101 O
b110100 =
b110100 j
18
b110010 W
b110010 ."
b1 2"
1B
1!
#1000
0B
0!
#1010
b10010011 &"
b10010011 $"
b10010011 %"
08
b10010011 9
b10010011 _
b110011 W
b10 2"
b110011 ."
b10010011 G
b0x00000000 F
1B
1!
#1020
0B
0!
#1030
1b
b0 /
b0 9"
03"
b0 4
b0 @
b0 O
1)"
b10010011 $"
b10010011 &"
b11111111111111111111111110010011 %"
b0 =
b0 j
1d
0a
1X
b110100 ~
1[
b0 y
1]
b0 k
b1 }
b0 ="
0#"
b1 f
b1 v
b0 {
b0 ("
b1 |
b100000000000 *"
b0 '"
1u
0l
1i
b0 )
b0 5"
b0 7
b0 g
0""
b110100 W
b110100 ."
b100 2"
b100100 /"
b0 1"
b0 w
b0 x
b0 Y
b0 0"
1B
1!
#1040
0B
0!
#1050
0X
b101110 %"
b0xxxxxxxxx /
b0xxxxxxxxx 9"
b101110 &"
14"
13"
b1110 4
b1110 @
b1110 O
b101110 $"
b111000 =
b111000 j
0d
18
0[
b101110 9
b101110 _
b110101 W
b1 2"
b111000 ~
b111100 !"
b111000 +"
b110101 ."
b101110 G
b0 F
1B
1!
#1060
0B
0!
#1070
b10011 %"
b10011 &"
b100010011 $"
b100010011 9
b100010011 _
08
b110110 W
b0xxxxxxxxx F
b100010011 G
b110110 ."
b10 2"
1B
1!
#1080
0B
0!
#1090
b0 /
b0 9"
04"
03"
b0 4
b0 @
b0 O
b0 =
b0 j
1d
1[
b10 f
b10 |
b10 *"
b110111 W
b100 2"
b1000100 /"
b110111 ."
1B
1!
#1100
0B
0!
#1110
b101110 %"
b101110 &"
b0xxxxxxxxx /
b0xxxxxxxxx 9"
14"
13"
b101110 $"
b1111 4
b1111 @
b1111 O
b111100 =
b111100 j
0d
b101110 9
b101110 _
18
0[
b111000 W
b0 F
b101110 G
b111000 ."
b1 2"
b111100 ~
b1000000 !"
b111100 +"
1B
1!
#1120
0B
0!
#1130
1X
b11111111111111111111111110110011 %"
b10110011 &"
b1000000110110011 $"
08
b1000001000000110110011 9
b1000001000000110110011 _
b111001 W
b10 2"
b111001 ."
b1000001000000110110011 G
b0xxxxxxxxx F
1B
1!
#1140
0B
0!
#1150
0X
b0 /
b0 9"
b0 %"
04"
03"
b0 &"
b1000 }
b0 4
b0 @
b0 O
b1000001000000000111100 ~
b100000 $"
b11 =
b11 j
1d
1[
b11 k
b11 f
b1000001000000000000000 {
b10 ("
b11 |
b100000000010 *"
b1000000000000010 '"
0u
1t
b111010 W
b111010 ."
b100 2"
b10000010000001101100 /"
1B
1!
#1160
0B
0!
#1170
b10000 4
b10000 @
b10000 O
b0 $"
b1000000 =
b1000000 j
0d
18
0[
b101110 9
b101110 _
b111011 W
b1 2"
b1000001000000001000000 ~
b1000100 !"
b1000000 +"
b111011 ."
b101110 G
b0 F
1B
1!
#1180
0B
0!
#1190
b111010010011 9
b111010010011 _
08
b111100 W
b111010010011 G
b111100 ."
b10 2"
1B
1!
#1200
0B
0!
#1210
1X
b11111111111111111111111110010011 %"
b10010011 &"
b1 }
b111010010011 $"
b0 4
b0 @
b0 O
b1000000 ~
b0 =
b0 j
1d
1[
b0 k
b11101 f
b0 {
b0 ("
b11101 |
b100000011100 *"
b0 '"
1u
0t
b111101 W
b100 2"
b1110100100 /"
b111101 ."
1B
1!
#1220
0B
0!
#1230
0X
b101110 %"
b101110 &"
b101110 $"
b10001 4
b10001 @
b10001 O
b1000100 =
b1000100 j
0d
b101110 9
b101110 _
18
0[
b111110 W
b101110 G
b111110 ."
b1 2"
b1000100 ~
b1001000 !"
b1000100 +"
1B
1!
#1240
0B
0!
#1250
b10011 %"
b10011 &"
b111000010011 $"
08
b1000000000111000010011 9
b1000000000111000010011 _
b111111 W
b10 2"
b111111 ."
b1000000000111000010011 G
1B
1!
#1260
0B
0!
#1270
b10 e
b10 Z
0b
b100000 %"
b100000 &"
b100 }
1#"
b100000 $"
b0 4
b0 @
b0 O
b1000000000000001000100 ~
1""
0)"
b10 =
b10 j
1d
b111111111111111111111111111111110 x
b10 k
1[
b10 w
b10 y
b11100 f
b1000000000000000000000 {
b10 ("
b11100 |
b11100 *"
b10 '"
b1000000 W
b1000000 ."
b100 2"
b10000000001110000100 /"
1B
1!
#1280
0B
0!
#1290
b0 %"
b0xxxxxxxxx /
b0xxxxxxxxx 9"
b0 &"
14"
b10010 4
b10010 @
b10010 O
b0 $"
b1001000 =
b1001000 j
0d
18
0[
b101110 9
b101110 _
b1000001 W
b1 2"
b1000000000000001001000 ~
b1001100 !"
b1001000 +"
b1000001 ."
b101110 G
1B
1!
#1300
0B
0!
#1310
1X
b11111111111111111111111111010001 %"
b11010001 &"
b100110111010001 $"
b1001101110100011001011001100011 9
b1001101110100011001011001100011 _
08
b1000010 W
b0xxxxxxxxx F
b1001101110100011001011001100011 G
b1000010 ."
b10 2"
1B
1!
#1320
0B
0!
#1330
0^
0b
b0 e
b1100011 &"
bx Z
0#"
b100110011 4
b100110011 @
b100110011 O
0""
1)"
b1001011001100011 $"
b10011001100 =
b10011001100 j
1\
b0 x
1X
b10100010100 ~
b0 w
b0 y
0]
b10011001100 k
b11111111111111111001011001100011 %"
b11 }
b1100 f
b10 v
b1001101110100011001000000000000 {
b10011011101 ("
b10011001100 |
b10011001100 *"
b11001110011011100 '"
0u
1r
0i
1h
b1000011 W
b100 2"
b10011011101000110010110011000 /"
b1000011 ."
1B
1!
#1340
0B
0!
#1350
0X
b10011 &"
b111000010011 %"
b111000010011 $"
b10011 4
b10011 @
b10011 O
b1001100 =
b1001100 j
b10001100000000111000010011 9
b10001100000000111000010011 _
18
b1000100 W
b10001100000000111000010011 G
b1000100 ."
b1 2"
b10100011000 ~
b1010000 !"
b1001100 +"
1B
1!
#1360
0B
0!
